4_job_descriptions_and_resume.Rmd
…
finally, print out the the top 20 terms using top_n() or slice_max()

excludes <- c("you'll","including","experience","requirements","required","preferred","responsibilities")
term_frequency<-jobs%>%
  unnest_tokens(word,job_description)%>%
  anti_join(stop_words, by = c("word" = "word"))%>%
  filter(!word %in% excludes )%>%
  filter(!str_detect(word,"^\\d"))%>%
  count(word,sort = T)
term_frequency%>%
  top_n(20)

## Selecting by n

## # A tibble: 22 x 2
##    word            n
##    <chr>       <int>
##  1 data          192
##  2 business       88
##  3 team           60
##  4 skills         54
##  5 analytics      38
##  6 management     32
##  7 ability        30
##  8 analysis       29
##  9 clients        29
## 10 information    25
## #  with 12 more rows
…
## `summarise()` ungrouping output (override with `.groups` argument)

tech_bigram_freq<-bigram_frequency%>%
  filter(bigram %in% technology_bigram)

colnames(tech_bigram_freq)[1]='term'
colnames(tech_term_freq)[1]='term'
technology_term_frequency <- tech_bigram_freq%>%
  bind_rows(tech_term_freq)%>%
  arrange(-n)
technology_term_frequency

## # A tibble: 22 x 2
##    term                   n
##    <chr>              <int>
##  1 data                 192
##  2 analytics             38
##  3 sql                   14
##  4 python                12
##  5 analyze               11
##  6 data science           9
##  7 machine learning       9
##  8 excel                  9
##  9 tableau                8
## 10 data visualization     6
## #  with 12 more rows
…
## Joining, by = "word"

resume_word_freq

## # A tibble: 197 x 2
##    word           n
##    <chr>      <int>
##  1 business       5
##  2 data           5
##  3 financial      3
##  4 funds          3
##  5 industry       3
##  6 intern         3
##  7 label          3
##  8 management     3
##  9 python         3
## 10 report         3
## #  with 187 more rows
…
TASK 4.4b - make a wordcloud of combined technolgy term frequencies

resume_tech_freq%>%
  wordcloud2()

Task 5  Compare resume jobs.

5.1 What terms do your resume and jobs data have in common? That is, compare your resumes terms to the terms found in the job descriptions.

resume_word_freq%>%
  inner_join(term_frequency,by='word',suffix=c("_resume","_job"))%>%
  arrange(-n_resume)

## # A tibble: 110 x 3
##    word       n_resume n_job
##    <chr>         <int> <int>
##  1 business          5    88
##  2 data              5   192
##  3 financial         3    20
##  4 industry          3     8
##  5 management        3    32
##  6 python            3    12
##  7 report            3     7
##  8 research          3    10
##  9 system            3     2
## 10 analyst           2    13
## #  with 100 more rows

5.2 Based on the jobs terms, what terms are missing from your resume? Make a table of terms missing from your resume but found in your job descriptions.

term_frequency%>%
  anti_join(resume_word_freq,by='word')%>%
  arrange(-n)

## # A tibble: 1,770 x 2
##    word               n
##    <chr>          <int>
##  1 ability           30
##  2 clients           29
##  3 information       25
##  4 teams             25
##  5 knowledge         23
##  6 development       22
##  7 solutions         22
##  8 degree            21
##  9 develop           20
## 10 qualifications    20
## #  with 1,760 more rows
…
