…
tech_bigram_freq<-bigram_frequency%>%
  filter(bigram %in% technology_bigram)

colnames(tech_bigram_freq)[1]='term'
colnames(tech_word_freq)[1]='term'
technology_term_frequency <- tech_bigram_freq%>%
  bind_rows(tech_word_freq)%>%
  arrange(-n)
technology_term_frequency
```

    ## # A tibble: 23 x 2
    ##    term                   n
    ##    <chr>              <int>
    ##  1 data                 192
    ##  2 analytics             38
    ##  3 sql                   14
    ##  4 python                12
    ##  5 analyze               11
    ##  6 data science           9
    ##  7 machine learning       9
    ##  8 excel                  9
    ##  9 tableau                8
    ## 10 data visualization     6
    ## # ... with 13 more rows
…
    ## Joining, by = "word"

``` r
resume_word_freq
```

    ## # A tibble: 205 x 2
    ##    word           n
    ##    <chr>      <int>
    ##  1 data           7
    ##  2 financial      7
    ##  3 business       5
    ##  4 funds          3
    ##  5 industry       3
    ##  6 intern         3
    ##  7 investment     3
    ##  8 management     3
    ##  9 python         3
    ## 10 research       3
    ## # ... with 195 more rows
…
# Part 3. Compare job description and resume

## 1. What terms do my resume and jobs data have in common?

``` r
resume_word_freq%>%
  inner_join(term_frequency,by='word',suffix=c("_resume","_job"))%>%
  arrange(-n_resume)
```

    ## # A tibble: 120 x 3
    ##    word       n_resume n_job
    ##    <chr>         <int> <int>
    ##  1 data              7   192
    ##  2 financial         7    20
    ##  3 business          5    88
    ##  4 industry          3     8
    ##  5 investment        3     2
    ##  6 management        3    32
    ##  7 python            3    12
    ##  8 research          3    10
    ##  9 analyst           2    13
    ## 10 department        2     6
    ## # ... with 110 more rows

## 2. Based on the job’s terms, what terms are missing from my resume?

``` r
term_frequency%>%
  anti_join(resume_word_freq,by='word')%>%
  arrange(-n)
```

    ## # A tibble: 1,758 x 2
    ##    word               n
    ##    <chr>          <int>
    ##  1 information       25
    ##  2 teams             25
    ##  3 development       22
    ##  4 solutions         22
    ##  5 degree            21
    ##  6 develop           20
    ##  7 qualifications    20
    ##  8 support           20
    ##  9 systems           20
    ## 10 communication     19
    ## # ... with 1,748 more rows
…
